Version 4
SHEET 1 880 680
WIRE 32 112 -176 112
WIRE 96 112 32 112
WIRE 256 112 256 80
WIRE 256 112 224 112
WIRE 400 128 224 128
WIRE 32 160 0 160
WIRE 96 160 32 160
WIRE 272 160 224 160
WIRE 352 160 272 160
WIRE 256 176 224 176
WIRE -176 208 -176 112
WIRE 0 208 0 160
WIRE 256 208 256 176
WIRE 352 208 352 160
FLAG 96 128 0
FLAG 256 288 0
FLAG 256 0 0
FLAG 400 128 out
FLAG -176 288 0
FLAG 0 288 0
FLAG 96 176 0
FLAG 352 288 0
FLAG 32 112 in1
FLAG 32 160 in2
FLAG 272 160 z
SYMBOL voltage 256 96 R180
WINDOW 0 24 96 Left 2
WINDOW 3 24 16 Left 2
WINDOW 123 0 0 Left 2
WINDOW 39 0 0 Left 2
SYMATTR InstName V1
SYMATTR Value 15
SYMBOL voltage 256 304 R180
WINDOW 0 24 96 Left 2
WINDOW 3 24 16 Left 2
WINDOW 123 0 0 Left 2
WINDOW 39 0 0 Left 2
SYMATTR InstName V2
SYMATTR Value 15
SYMBOL multiplier_model 160 144 R0
SYMATTR InstName X1
SYMBOL Misc\\signal -176 192 R0
WINDOW 123 0 0 Left 2
WINDOW 39 0 0 Left 2
SYMATTR InstName V3
SYMATTR Value SINE(0 5 1K)
SYMBOL Misc\\signal 0 192 R0
WINDOW 123 0 0 Left 2
WINDOW 39 0 0 Left 2
SYMATTR InstName V4
SYMATTR Value SINE(0 5 10)
SYMBOL Misc\\signal 352 192 R0
WINDOW 123 0 0 Left 2
WINDOW 39 0 0 Left 2
SYMATTR InstName V5
SYMATTR Value PULSE(-10 10 0 1)
TEXT -210 316 Left 2 !.tran 1
